/Users/santoshvijayakumar/IdeaProjects/oxfordDictionary/src/main/java/nz/co/oxford/helpers/Hooks.java
/Users/santoshvijayakumar/IdeaProjects/oxfordDictionary/src/main/java/nz/co/oxford/helpers/Log.java
/Users/santoshvijayakumar/IdeaProjects/oxfordDictionary/src/main/java/nz/co/oxford/helpers/Constants.java
/Users/santoshvijayakumar/IdeaProjects/oxfordDictionary/src/main/java/nz/co/oxford/managers/ConfigFileReaderManager.java
/Users/santoshvijayakumar/IdeaProjects/oxfordDictionary/src/main/java/nz/co/oxford/modules/OxfordDictionariesAPI.java
/Users/santoshvijayakumar/IdeaProjects/oxfordDictionary/src/main/java/nz/co/oxford/helpers/ExcelUtil.java
/Users/santoshvijayakumar/IdeaProjects/oxfordDictionary/src/main/java/nz/co/oxford/modelObjects/OxfordDictionariesAPIDetails.java
